{
  "san-get": {
    "desc":"Package system",
    "files": [
      {
        "url":"https://lua.ffgs.ru/cc/san-get.lua",
        "localname":"/san-get",
      }
    ],
    "requires":[]
  },    
  "debug-api": {
    "desc":"Debug api",
    "files": [
      {
        "url":"https://lua.ffgs.ru/cc/src/api/debug.lua",
        "localname":"/lib/debug",
      }
    ],
    "requires":[]
  },
  "events-api": {
    "desc":"API for events",
    "files": [
      {
        "url":"https://lua.ffgs.ru/cc/src/api/events.lua",
        "localname":"/lib/events",
      }
    ],
    "requires":[]
  },
  "ic2batbox-api": {
    "desc":"IC2 energy storage api",
    "files": [
      {
        "url":"https://lua.ffgs.ru/cc/src/api/ic2/batbox.lua",
        "localname":"/lib/ic2batbox",
      }
    ],
    "requires":["debug-api"]
  },
  "ic2reactors-api": {
    "desc":"IC2 reactors api",
    "files": [
      {
        "url":"https://lua.ffgs.ru/cc/src/api/ic2/reactors.lua",
        "localname":"/lib/ic2reactors",
      }
    ],
    "requires":["debug-api"]
  },
  "reactorctl": {
    "desc":"IC2 reactor controller",
    "files": [
      {
        "url":"https://lua.ffgs.ru/cc/src/ic2/reactor-monitor.lua",
        "localname":"/reactormon",
      },
      {
        "url":"https://lua.ffgs.ru/cc/src/ic2/reactor-controller.lua",
        "localname":"/reactorctl",
      }
    ],
    "requires":["ic2batbox-api","ic2reactors-api"]
  },
  "cls": {"desc":"No desc","files":[{"url":"https://lua.ffgs.ru/cc/src/cls.lua","localname":"/cls"}],"requires":[]},
  "fills": {"desc":"No desc","files":[{"url":"https://lua.ffgs.ru/cc/src/fills.lua","localname":"/fills"}],"requires":[]},
  "kubachos": {"desc":"No desc","files":[{"url":"https://lua.ffgs.ru/cc/src/kubachos.lua","localname":"/kubachos"}],"requires":[]},
  "mineos1": {"desc":"No desc","files":[{"url":"https://lua.ffgs.ru/cc/src/mineos1.lua","localname":"/mineos1"}],"requires":[]},
  "mineos2": {"desc":"No desc","files":[{"url":"https://lua.ffgs.ru/cc/src/mineos2.lua","localname":"/mineos2"}],"requires":[]},
  "mineos3": {"desc":"No desc","files":[{"url":"https://lua.ffgs.ru/cc/src/mineos3.lua","localname":"/mineos3"}],"requires":["warpdrive-api"]},
  "oldmcwarp": {"desc":"No desc","files":[{"url":"https://lua.ffgs.ru/cc/src/oldmcwarp.lua","localname":"/oldmcwarp"}],"requires":[]},
  "pattern-builder": {"desc":"No desc","files":[{"url":"https://lua.ffgs.ru/cc/src/pattern-builder.lua","localname":"/pbuild"}],"requires":[]},
  "test": {"desc":"No desc","files":[{"url":"https://lua.ffgs.ru/cc/src/test.lua","localname":"/test"}],"requires":["debug-api"]},
  "warpdrive-api": {"desc":"No desc","files":[{"url":"https://lua.ffgs.ru/cc/src/api/warpdrive/MiningLaser.lua","localname":"/lib/warpdrive/MiningLaser"}],"requires":["debug-api"]}
}